0.00,630.79,239.90,656.21,275.60
0.00,529.24,743.72,548.07,771.15
0.00,1681.52,768.77,1693.29,795.26
0.00,1297.41,1148.04,1337.83,1182.36
0.00,529.16,2061.42,549.28,2089.85
1.00,654.44,394.16,684.28,420.77
1.00,1301.32,581.96,1322.12,615.09
1.00,248.85,741.45,277.26,776.73
1.00,205.22,2411.31,278.22,2463.61
2.00,1686.65,354.90,1701.74,386.86
2.00,1517.72,429.37,1537.84,459.43
2.00,1301.04,969.03,1334.29,999.89
2.00,175.59,1402.79,279.49,1477.75
2.00,612.83,1409.85,1008.22,1467.48
2.00,1624.97,2022.91,1651.50,2044.62
2.00,1302.28,2156.81,1591.15,2185.02
2.00,533.99,2317.96,555.01,2351.31
2.00,1247.28,2375.10,1265.54,2397.21
2.00,1647.41,2411.41,1677.02,2433.07
2.00,1407.07,2444.74,1426.01,2467.95
3.00,527.70,238.80,559.81,256.67
3.00,252.84,375.11,271.09,401.56
3.00,527.71,409.23,560.80,439.02
3.00,534.15,484.07,584.85,512.25
3.00,248.06,548.07,271.71,579.98
3.00,748.11,556.39,777.11,575.76
3.00,249.48,654.02,271.02,685.18
3.00,248.88,758.87,272.02,791.84
3.00,1354.45,1044.89,1425.29,1083.73
3.00,249.60,1152.93,271.91,1178.85
3.00,530.69,1509.71,694.57,1538.23
3.00,1295.91,1529.41,1305.35,1562.36
3.00,1021.92,1609.12,1040.39,1646.25
3.00,249.96,1686.90,273.04,1719.14
3.00,1025.79,1726.42,1040.73,1757.32
3.00,907.32,1775.52,977.35,1785.14
3.00,1580.72,1802.56,1597.52,1829.31
3.00,1019.32,1998.79,1091.45,2029.60
3.00,402.79,2410.91,438.82,2434.29
4.00,1297.08,422.51,1320.22,449.27
4.00,204.46,1366.22,276.07,1400.61
4.00,238.04,2159.70,271.63,2183.89
4.00,529.29,2309.89,540.40,2335.17
5.00,525.40,400.92,528.03,434.36
5.00,911.06,405.41,929.78,429.54
5.00,910.76,549.30,928.64,574.23
5.00,200.97,622.01,238.21,643.18
5.00,910.21,727.21,926.84,750.48
5.00,1007.22,758.92,1038.00,785.95
5.00,1148.43,1423.84,1236.04,1455.43
5.00,185.58,2163.35,264.50,2198.17
6.00,1401.77,353.02,1426.52,377.83
6.00,1297.12,503.09,1306.43,534.05
6.00,528.90,1013.80,542.68,1041.71
6.00,1274.24,1672.50,1295.64,1703.45
6.00,242.88,1753.20,273.39,1778.51
6.00,1386.81,1970.75,1405.31,2000.21
6.00,202.43,2117.64,273.62,2173.83
7.00,781.95,468.78,815.20,496.54
7.00,1775.56,448.80,1804.71,477.28
7.00,873.17,507.66,906.36,535.15
7.00,239.01,983.80,270.06,1010.12
7.00,1397.76,1012.64,1422.03,1042.76
7.00,773.58,1881.33,805.87,1909.41
7.00,199.94,2262.27,269.56,2312.34
7.00,196.52,2379.12,266.98,2437.42
7.00,1677.90,2376.17,1704.25,2398.45
