0.00,588.53,295.82,653.90,336.00
0.00,1017.67,384.50,1038.62,420.12
0.00,632.90,1077.94,652.79,1110.35
0.00,1290.92,1328.67,1377.24,1360.74
0.00,1678.67,1336.19,1700.92,1359.55
0.00,1451.53,1391.69,1478.61,1402.90
0.00,1678.63,1547.37,1699.89,1576.13
0.00,1788.68,1581.69,1806.74,1613.55
0.00,808.25,1972.52,836.36,1999.28
0.00,526.95,2099.36,546.55,2127.83
0.00,1678.04,2283.60,1836.98,2318.76
0.00,1666.15,2405.74,1688.21,2430.97
0.00,671.47,2526.04,689.30,2549.96
9.00,1289.82,260.59,1372.28,294.34
9.00,784.79,1006.27,807.01,1031.25
9.00,1289.88,1408.31,1376.90,1465.04
1.00,417.24,240.74,437.05,267.79
1.00,1298.61,559.72,1317.80,586.26
1.00,804.40,1322.33,820.66,1345.33
1.00,915.08,1407.14,933.57,1436.67
1.00,332.55,2184.25,360.17,2209.58
1.00,712.67,2494.78,739.57,2523.31
1.00,227.31,2535.76,244.70,2560.58
2.00,1706.36,1001.85,1826.69,1031.34
2.00,1086.24,1042.98,1269.70,1074.08
2.00,643.57,1392.16,661.20,1399.80
2.00,1346.74,1326.91,1673.94,1520.70
2.00,1307.18,1782.27,1823.79,1858.50
2.00,1680.97,1859.22,1696.33,1899.06
2.00,1228.47,2159.77,1253.06,2186.02
2.00,621.01,2319.16,648.60,2347.24
2.00,230.32,2494.78,268.91,2527.72
3.00,521.00,695.20,522.45,721.00
3.00,905.00,1076.75,932.93,1103.86
3.00,1059.76,1257.21,1427.69,1312.25
3.00,1303.17,1317.36,1506.07,1341.85
3.00,1293.88,1463.52,1638.99,1512.98
3.00,1049.34,1766.60,1627.90,1879.47
3.00,520.76,1986.83,541.22,2016.99
3.00,1614.72,2465.41,1643.51,2496.52
4.00,243.37,503.25,270.59,554.51
4.00,1294.71,730.04,1319.90,754.08
4.00,223.60,1436.82,455.16,1533.95
4.00,724.59,1432.97,1027.55,1628.60
4.00,231.03,1643.68,271.25,1730.81
4.00,1461.42,1982.45,1487.16,2012.33
4.00,526.67,2118.28,553.75,2143.66
5.00,212.70,427.99,266.33,510.05
5.00,357.69,218.81,583.16,344.51
5.00,519.27,411.59,650.47,457.22
5.00,1206.91,322.49,1407.24,485.98
5.00,228.22,667.59,264.41,741.22
5.00,486.26,615.07,787.44,730.33
5.00,1279.37,618.16,1602.39,723.74
5.00,1185.12,1004.22,1417.05,1200.60
5.00,1672.74,2375.16,1695.49,2410.82
6.00,526.79,231.52,556.62,263.17
6.00,1094.82,288.33,1258.22,364.10
6.00,1391.37,289.24,1846.86,432.65
6.00,1298.54,625.60,1423.62,702.95
6.00,382.31,743.05,429.08,765.62
6.00,527.98,936.56,550.80,959.89
6.00,912.39,1391.35,916.71,1401.58
6.00,1681.28,1608.46,1694.47,1634.37
6.00,1237.92,1776.13,1280.72,1799.97
6.00,1303.45,1818.50,1393.36,1843.76
7.00,1295.83,780.45,1313.85,813.43
7.00,1754.72,1542.70,1805.94,1571.88
7.00,442.01,1664.69,456.60,1683.00
7.00,527.54,1907.91,555.80,1931.20
7.00,227.07,2374.56,265.92,2402.51
8.00,1369.58,344.91,1418.39,368.14
8.00,1530.93,1204.34,1555.19,1231.28
8.00,237.46,1462.74,274.34,1495.67
8.00,235.21,1677.45,275.72,1711.81
8.00,912.04,2294.81,984.67,2351.48
8.00,1400.93,2419.04,1425.25,2455.64
