0.00,618.92,595.59,634.96,615.09
0.00,614.51,913.06,803.84,953.37
0.00,226.07,962.43,462.21,1003.18
0.00,534.45,1201.53,685.47,1240.87
0.00,883.43,1199.85,981.89,1241.43
0.00,1221.31,1171.62,1339.93,1209.69
0.00,1786.91,1263.45,1808.03,1304.86
0.00,1448.20,2039.36,1474.38,2068.01
1.00,1193.97,219.64,1298.36,254.01
1.00,1397.91,220.57,1521.88,255.26
1.00,1233.17,395.14,1258.95,429.60
1.00,1295.42,360.01,1356.57,434.57
1.00,1292.50,500.26,1429.03,544.71
1.00,1536.97,315.99,1781.41,417.12
1.00,1659.89,417.90,1772.74,522.60
1.00,385.17,603.24,464.79,641.48
1.00,692.02,565.34,711.80,583.63
1.00,1331.76,620.71,1349.65,646.78
1.00,1494.61,575.88,1801.05,615.40
1.00,642.16,698.70,797.36,738.59
1.00,1232.62,680.60,1502.66,719.30
1.00,1661.31,682.29,1836.46,717.17
1.00,1160.45,778.71,1480.59,817.20
1.00,360.46,987.69,440.20,1026.68
1.00,524.80,940.84,545.22,971.42
1.00,1233.88,958.04,1261.85,985.42
1.00,1234.14,1063.67,1256.69,1097.85
1.00,1326.78,966.37,1345.42,992.15
1.00,1529.11,904.26,1775.85,1123.45
1.00,1291.50,1164.63,1431.35,1215.69
1.00,1489.42,1173.65,1806.71,1213.84
1.00,1335.56,1227.51,1349.37,1263.71
1.00,525.25,1423.50,533.17,1462.71
1.00,1606.85,1398.69,1836.02,1435.74
1.00,1076.41,1497.04,1440.25,1533.08
1.00,1534.53,1496.70,1835.68,1533.29
1.00,1570.87,1545.59,1834.20,1581.65
1.00,1074.15,1591.28,1161.08,1632.99
1.00,1561.35,1818.41,1580.90,1844.22
1.00,1289.02,1921.53,1721.79,1956.87
1.00,1227.52,1970.08,1242.33,2005.45
1.00,1421.54,2021.98,1439.77,2052.04
1.00,292.77,2076.15,427.72,2107.87
1.00,345.29,2171.35,373.05,2198.64
1.00,479.62,2217.75,703.68,2426.66
1.00,1094.81,2334.31,1462.80,2373.51
1.00,1483.01,2116.76,1820.71,2460.90
1.00,218.68,2512.19,423.84,2548.03
1.00,604.83,2511.94,762.56,2548.17
1.00,1542.56,2513.63,1569.65,2541.53
1.00,373.29,2560.44,657.21,2602.47
2.00,225.22,233.32,493.20,267.03
2.00,623.54,233.10,648.38,266.08
2.00,1203.40,229.64,1764.19,267.88
2.00,1360.17,276.43,1591.79,312.71
2.00,1686.32,278.12,1728.03,305.66
2.00,1154.88,323.56,1623.74,364.35
2.00,368.45,388.48,390.75,430.97
2.00,369.59,496.15,392.81,516.16
2.00,689.37,408.26,918.31,505.10
2.00,793.50,524.66,910.87,614.40
2.00,1403.29,451.26,1439.26,483.02
2.00,1449.28,498.70,1488.61,527.95
2.00,251.31,615.68,555.97,647.72
2.00,1457.45,637.51,1592.20,670.83
2.00,667.20,671.75,946.18,707.48
2.00,226.50,827.67,258.26,857.16
2.00,610.39,921.68,637.52,949.96
2.00,946.92,922.71,977.87,950.23
2.00,408.00,969.56,979.10,1010.87
2.00,222.61,1018.23,437.28,1056.84
2.00,1115.28,1087.73,1285.36,1122.92
2.00,1200.66,1131.55,1284.78,1157.66
2.00,1340.26,1140.18,1358.88,1157.26
2.00,295.32,1191.28,567.69,1230.39
2.00,1264.02,1174.56,1352.08,1205.84
2.00,361.74,1245.94,578.37,1276.74
2.00,649.50,1288.41,749.63,1326.52
2.00,904.58,1288.93,923.82,1317.86
2.00,714.68,1332.03,978.68,1374.66
2.00,223.33,1383.71,780.65,1423.32
2.00,1408.39,1301.68,1608.79,1339.24
2.00,1341.41,1341.69,1619.94,1422.24
2.00,546.73,1458.38,819.77,1503.49
2.00,854.63,1460.81,978.99,1503.87
2.00,1340.94,1427.13,1573.33,1509.36
2.00,223.66,1510.35,523.68,1547.05
2.00,616.87,1510.29,711.42,1547.41
2.00,727.93,1514.47,898.53,1551.18
2.00,1458.14,1514.77,1550.73,1543.12
2.00,261.72,1559.00,358.85,1594.03
2.00,461.44,1557.67,602.08,1598.75
2.00,1529.36,1641.84,1758.08,1676.52
2.00,358.54,1686.93,388.44,1713.91
2.00,1364.70,1685.67,1461.40,1721.05
2.00,519.99,1735.65,555.28,1764.30
2.00,1499.22,1725.40,1709.71,1762.11
2.00,1467.48,1766.73,1765.06,1806.05
2.00,1349.74,1811.21,1597.43,1847.59
2.00,1252.12,1853.65,1367.33,1889.78
2.00,1082.14,1936.85,1229.84,1972.63
2.00,768.82,2004.19,809.31,2033.47
2.00,906.34,2006.01,938.83,2037.35
2.00,1139.30,1978.35,1612.40,2016.09
2.00,1092.33,2061.73,1243.90,2098.85
2.00,342.85,2123.30,535.90,2155.92
2.00,627.92,2122.85,986.04,2160.81
2.00,1138.60,2103.37,1419.50,2139.71
2.00,1672.05,2105.15,1790.87,2141.66
2.00,432.62,2172.03,672.79,2211.24
2.00,1079.59,2186.58,1286.72,2223.42
2.00,1243.44,2229.93,1488.32,2267.13
2.00,346.25,2300.47,640.01,2336.01
2.00,300.54,2347.33,548.90,2387.01
2.00,733.96,2299.85,981.99,2337.01
2.00,690.02,2344.22,929.14,2385.91
2.00,1203.49,2273.35,1507.76,2312.41
2.00,1273.56,2312.54,1773.99,2353.90
2.00,1231.65,2401.24,1410.27,2438.80
2.00,340.83,2477.18,592.69,2512.44
2.00,675.45,2472.51,979.24,2517.47
2.00,303.77,2527.05,344.03,2555.47
2.00,443.85,2525.24,862.13,2564.41
2.00,1244.14,2445.44,1587.94,2480.35
2.00,1228.63,2490.40,1360.17,2528.70
2.00,1304.16,2533.02,1659.50,2567.32
2.00,1270.91,2572.20,1790.30,2616.04
3.00,231.15,234.70,344.62,268.88
3.00,400.18,320.44,572.85,350.57
3.00,388.25,363.97,644.30,396.45
3.00,1448.55,477.70,1477.81,504.57
3.00,1407.60,520.74,1439.01,553.88
3.00,631.68,858.73,657.58,887.45
3.00,316.23,904.34,529.56,943.18
3.00,343.30,951.84,675.78,994.16
3.00,966.60,1003.04,987.67,1032.89
3.00,1427.37,995.32,1445.67,1013.29
3.00,1507.28,987.35,1543.11,1016.64
3.00,1322.61,1084.44,1447.17,1114.29
3.00,1823.66,1092.56,1841.40,1110.44
3.00,227.62,1197.57,329.12,1237.47
3.00,1654.58,1236.53,1672.63,1254.37
3.00,1738.47,1228.28,1768.29,1255.45
3.00,1583.07,1285.26,1606.23,1306.16
3.00,231.36,1339.99,468.18,1377.27
3.00,564.40,1337.35,798.52,1376.92
3.00,617.59,1384.89,986.03,1427.27
3.00,1166.48,1370.95,1206.96,1403.69
3.00,1494.23,1371.07,1532.08,1406.48
3.00,728.79,1480.72,985.93,1522.75
3.00,1351.92,1524.38,1372.59,1542.85
3.00,355.53,1653.99,741.34,1690.92
3.00,1539.89,1661.13,1565.75,1681.66
3.00,301.79,1721.22,579.04,1758.51
3.00,1323.27,1758.19,1341.70,1783.84
3.00,1362.96,1713.37,1390.27,1735.06
3.00,1415.24,1712.71,1432.60,1730.25
3.00,1437.84,1757.63,1456.09,1776.26
3.00,1558.53,1757.33,1578.90,1783.67
3.00,1671.98,1756.99,1688.22,1775.96
3.00,303.33,1796.10,514.79,1833.75
3.00,1598.26,1795.79,1641.39,1830.19
3.00,1724.06,1803.66,1749.24,1823.74
3.00,304.99,1869.99,331.45,1898.10
3.00,390.13,1944.14,532.02,1977.50
3.00,1357.11,1935.09,1426.81,1972.40
3.00,389.20,2001.90,541.33,2033.97
3.00,389.63,2061.03,497.97,2094.64
3.00,429.52,2138.45,458.19,2168.04
3.00,509.13,2138.51,528.60,2166.55
3.00,1401.72,2116.20,1425.78,2151.42
3.00,769.11,2237.40,791.59,2271.85
3.00,1284.37,2256.36,1815.32,2287.13
3.00,1500.45,2380.23,1530.57,2408.33
3.00,1464.83,2428.66,1494.90,2456.01
3.00,1299.39,2470.18,1332.97,2505.73
3.00,1461.24,2535.19,1479.19,2553.58
3.00,1540.22,2526.83,1570.25,2553.93
3.00,1631.12,2574.32,1670.65,2608.51
3.00,1750.07,2574.34,1790.13,2608.45
4.00,472.55,228.78,1598.00,373.24
4.00,1089.01,695.00,1114.24,722.14
4.00,423.40,866.29,442.80,884.14
4.00,1288.80,979.18,1307.06,996.49
4.00,415.27,1051.93,454.28,1085.09
4.00,479.31,1100.02,517.78,1133.24
4.00,1083.64,1113.93,1174.38,1150.74
4.00,486.38,1223.44,522.67,1257.52
4.00,1317.05,1206.66,1426.25,1244.04
4.00,427.05,1363.56,463.22,1401.45
4.00,1442.24,1370.56,1461.18,1388.66
4.00,1086.19,1417.17,1104.36,1443.09
4.00,1197.51,1415.61,1214.90,1433.94
4.00,943.40,1459.70,981.54,1492.81
4.00,1452.82,1457.05,1490.84,1494.67
4.00,377.68,1514.94,396.12,1533.73
4.00,505.99,1507.45,541.67,1545.95
4.00,1085.17,1504.38,1122.05,1538.09
4.00,485.20,1587.29,521.75,1620.58
4.00,1162.24,1600.47,1251.01,1633.64
4.00,1316.58,1687.57,1426.79,1726.88
4.00,901.54,1735.54,919.40,1761.19
4.00,422.02,1776.16,452.62,1805.28
4.00,437.33,1823.56,476.03,1855.89
4.00,343.70,1871.08,382.68,1903.81
4.00,719.53,1871.91,758.53,1903.80
4.00,653.46,1916.72,760.16,1955.31
4.00,465.14,2036.95,655.90,2083.05
4.00,1406.98,2032.69,1424.86,2069.59
4.00,1524.50,2083.86,1611.38,2121.60
4.00,1701.87,2084.22,1804.82,2122.66
4.00,1683.83,2132.66,1788.25,2166.93
4.00,445.41,2184.00,540.16,2221.75
4.00,458.34,2232.21,579.93,2271.53
4.00,857.69,2184.59,893.28,2222.42
4.00,1111.00,2210.38,1436.06,2277.49
4.00,1287.28,2456.22,1424.43,2495.24
4.00,596.60,2536.17,615.28,2554.62
4.00,830.16,2575.47,868.05,2608.13
5.00,1449.94,234.60,1468.02,251.63
5.00,815.59,272.51,904.85,307.66
5.00,1512.00,273.03,1551.28,305.12
5.00,546.86,319.26,584.21,356.98
5.00,1216.37,318.51,1256.04,352.27
5.00,1772.78,321.99,1800.69,352.97
5.00,380.98,368.10,419.13,401.43
5.00,253.76,451.23,590.42,496.40
5.00,681.39,512.25,717.96,551.51
5.00,906.61,578.88,953.28,654.34
5.00,1404.03,654.47,1442.87,681.90
5.00,468.77,683.93,645.14,738.37
5.00,1264.26,875.97,1332.99,915.81
5.00,292.66,942.32,325.01,976.95
5.00,935.45,949.94,968.99,978.29
5.00,930.52,996.48,965.30,1025.03
5.00,1145.78,1018.52,1163.85,1043.51
5.00,1411.88,1018.90,1428.88,1043.98
5.00,1721.43,1009.20,1759.74,1042.29
5.00,534.63,1045.53,574.01,1079.54
5.00,572.91,1086.58,606.63,1122.54
5.00,1265.39,1107.56,1306.82,1141.52
5.00,775.15,1150.86,793.56,1169.88
5.00,905.14,1141.88,927.28,1170.99
5.00,220.64,1284.07,372.05,1325.25
5.00,774.09,1335.42,813.34,1369.35
5.00,221.60,1388.94,249.66,1412.00
5.00,311.12,1384.21,344.04,1412.35
5.00,733.92,1430.20,763.83,1457.92
5.00,824.02,1428.34,977.84,1467.89
5.00,311.37,1757.22,329.88,1775.59
5.00,879.65,1751.13,977.23,1778.16
5.00,384.16,1805.54,403.05,1823.87
5.00,659.40,1793.72,968.11,1832.96
5.00,1772.68,1791.07,1792.80,1811.99
5.00,1578.20,1840.25,1597.88,1867.34
5.00,1074.97,1880.04,1117.69,1914.52
5.00,1700.18,1880.18,1747.12,1918.78
5.00,1183.03,1939.56,1201.09,1957.13
5.00,1817.53,1936.83,1834.54,1963.62
5.00,1159.21,1986.51,1175.24,2005.06
5.00,1291.73,1977.54,1330.23,2011.64
5.00,1175.40,2026.53,1211.11,2064.33
5.00,1311.75,2026.48,1349.30,2060.18
5.00,452.37,2097.31,470.39,2116.39
5.00,811.25,2087.78,965.41,2122.46
5.00,297.74,2219.62,323.77,2248.13
5.00,1281.35,2223.31,1840.01,2263.19
5.00,1074.59,2272.17,1201.23,2312.86
5.00,1378.48,2371.09,1440.35,2413.60
5.00,1815.70,2383.56,1833.56,2401.94
5.00,1597.91,2423.30,1638.92,2457.26
5.00,1299.41,2468.14,1401.67,2508.66
6.00,419.04,412.06,754.35,595.68
6.00,1017.83,503.60,1036.90,536.15
6.00,1403.07,495.20,1421.47,534.29
6.00,1530.22,554.30,1587.12,591.85
6.00,1445.78,742.27,1482.74,775.48
6.00,458.13,857.52,502.44,883.90
6.00,1197.77,856.54,1483.01,894.29
6.00,1593.42,854.71,1835.77,891.98
6.00,463.59,912.21,484.02,930.32
6.00,902.31,900.87,978.81,940.74
6.00,1154.01,898.45,1394.21,941.63
6.00,1536.44,901.73,1779.36,939.60
6.00,711.00,1016.36,729.47,1034.41
6.00,795.36,1007.52,899.96,1046.72
6.00,1197.09,1030.22,1455.52,1066.67
6.00,1541.95,1029.01,1749.61,1066.02
6.00,229.81,1113.17,253.36,1132.02
6.00,458.68,1112.09,476.63,1130.64
6.00,772.53,1112.13,790.48,1138.00
6.00,732.98,1152.24,838.00,1192.13
6.00,861.11,1103.53,968.38,1143.47
6.00,1153.51,1075.49,1835.58,1117.71
6.00,1161.00,1122.77,1190.76,1156.83
6.00,1288.88,1127.01,1525.51,1164.05
6.00,764.95,1198.38,865.75,1237.28
6.00,228.88,1296.08,332.52,1335.48
6.00,713.19,1295.82,858.20,1335.12
6.00,913.46,1297.23,975.43,1335.59
6.00,1204.24,1296.59,1777.24,1338.26
6.00,1162.90,1345.75,1839.29,1387.30
6.00,1158.67,1390.20,1436.02,1435.39
6.00,1532.07,1397.55,1705.09,1433.46
6.00,509.10,1438.71,586.52,1477.79
6.00,375.11,1497.73,397.42,1515.72
6.00,226.23,1592.67,383.54,1627.61
6.00,579.81,1589.95,642.93,1629.75
6.00,713.98,1648.23,731.82,1675.15
6.00,740.27,1552.76,758.83,1570.78
6.00,732.07,1696.91,750.19,1723.14
6.00,1205.17,1565.09,1807.77,1611.23
6.00,1162.14,1615.23,1834.96,1658.30
6.00,1157.63,1663.57,1432.47,1708.22
6.00,1530.45,1668.99,1698.96,1704.49
6.00,524.85,1783.31,716.88,1819.79
6.00,294.44,1831.12,372.06,1869.72
6.00,1193.39,1837.74,1374.70,1880.02
6.00,1458.77,1839.53,1639.02,1879.46
6.00,1734.96,1851.47,1838.96,1873.21
6.00,1158.50,1886.73,1229.88,1923.98
6.00,374.13,1927.64,436.73,1965.32
6.00,917.70,2032.38,937.79,2050.62
6.00,1196.04,2012.22,1384.03,2053.19
6.00,1474.96,2013.31,1576.19,2051.32
6.00,1676.72,2009.99,1787.71,2050.94
6.00,224.15,2069.26,306.61,2107.94
6.00,1408.05,2137.66,1439.80,2172.98
6.00,1455.68,2186.82,1485.27,2222.28
6.00,772.85,2291.47,803.22,2327.72
6.00,1449.07,2327.20,1660.94,2366.03
6.00,340.56,2456.07,538.13,2488.84
6.00,643.51,2452.76,982.46,2495.19
6.00,431.11,2502.72,669.62,2541.89
7.00,1085.73,228.31,1199.55,263.22
7.00,296.59,266.59,403.19,306.56
7.00,635.43,314.85,875.92,349.20
7.00,1248.61,314.02,1428.78,343.84
7.00,1245.82,354.90,1647.98,394.09
7.00,527.72,400.27,608.82,436.26
7.00,528.45,443.23,728.62,479.29
7.00,389.16,483.94,416.11,516.98
7.00,461.82,533.16,590.66,565.60
7.00,358.09,575.14,683.43,608.75
7.00,710.71,615.33,938.45,651.81
7.00,421.18,656.35,691.40,693.44
7.00,414.63,697.05,686.88,738.68
7.00,471.92,740.11,689.35,777.92
7.00,400.72,784.78,512.16,820.33
7.00,369.72,850.05,466.61,887.70
7.00,1124.18,724.42,1281.68,763.29
7.00,1301.26,772.36,1455.98,813.42
7.00,1342.47,817.95,1374.00,851.17
7.00,1503.86,718.08,1718.38,758.61
7.00,1685.68,821.92,1838.67,860.86
7.00,295.20,890.28,478.35,931.17
7.00,525.42,939.78,886.81,976.08
7.00,294.68,979.08,500.21,1018.10
7.00,349.88,1026.67,828.14,1064.62
7.00,1085.52,962.43,1115.72,995.68
7.00,1130.14,1012.30,1251.72,1048.54
7.00,1254.33,911.50,1419.89,956.87
7.00,351.38,1070.63,610.36,1106.62
7.00,426.88,1134.69,559.41,1173.55
7.00,293.68,1175.31,520.53,1215.81
7.00,349.05,1222.57,717.02,1260.72
7.00,345.07,1263.56,737.12,1301.46
7.00,1083.37,1203.33,1179.03,1245.12
7.00,1228.60,1160.45,1258.09,1188.93
7.00,1183.47,1250.89,1420.09,1293.00
7.00,1723.29,1157.97,1837.69,1196.68
7.00,1438.55,1206.48,1746.78,1244.32
7.00,350.99,1308.88,588.35,1343.46
7.00,662.44,1307.57,854.93,1344.41
7.00,527.16,1376.19,691.28,1412.46
7.00,391.94,1419.10,665.92,1453.22
7.00,374.26,1462.09,815.87,1499.74
7.00,420.21,1503.83,641.80,1546.22
7.00,485.94,1552.51,903.44,1588.89
7.00,487.73,1589.42,862.44,1631.18
7.00,1389.39,1594.59,1506.25,1632.06
7.00,443.35,1639.87,885.24,1676.33
7.00,486.56,1680.20,661.80,1721.45
7.00,1400.60,1640.21,1424.53,1681.43
7.00,548.18,1722.52,937.87,1765.72
7.00,543.78,1767.61,913.34,1804.03
7.00,199.48,1830.26,631.10,1871.17
7.00,391.32,1876.83,845.00,1911.10
7.00,288.90,1920.38,571.47,1954.22
7.00,385.66,1960.43,820.11,1997.06
7.00,1389.39,1974.42,1475.77,2003.75
7.00,345.84,2005.14,817.61,2041.64
7.00,418.88,2050.87,858.18,2083.96
7.00,347.34,2094.75,810.35,2132.68
7.00,416.40,2136.45,633.98,2175.73
7.00,481.73,2184.94,959.45,2223.85
7.00,480.23,2228.64,883.78,2266.45
7.00,255.96,2298.49,517.29,2333.19
7.00,385.61,2343.97,923.95,2377.33
7.00,383.20,2385.67,827.60,2420.79
7.00,353.76,2430.02,805.93,2466.91
7.00,415.82,2472.71,898.84,2510.70
7.00,417.47,2514.66,624.26,2556.64
7.00,482.70,2564.28,901.54,2600.61
8.00,1794.97,238.45,1834.22,264.11
8.00,1631.64,407.50,1734.19,440.00
8.00,1740.94,406.22,1836.24,443.62
8.00,906.46,616.31,984.09,654.40
8.00,471.18,662.22,664.52,704.06
8.00,1442.69,709.22,1471.63,737.69
8.00,1410.69,756.41,1424.40,787.34
8.00,407.49,806.12,502.28,848.34
8.00,747.27,809.25,896.47,848.27
8.00,1295.46,806.25,1312.34,835.12
8.00,1783.31,979.79,1808.67,1012.86
8.00,1793.61,1283.00,1807.70,1312.93
8.00,1536.36,1390.88,1566.29,1410.97
8.00,1814.33,1507.17,1840.34,1536.03
8.00,235.29,1629.49,272.50,1659.35
8.00,564.72,1628.36,689.86,1661.39
8.00,527.37,1756.83,532.23,1783.75
8.00,912.10,1754.21,974.22,1784.23
8.00,235.30,1849.16,272.23,1880.57
8.00,534.56,2250.55,558.65,2278.31
8.00,624.20,2346.88,656.06,2376.88
8.00,596.35,2475.47,657.37,2509.59
