0.00,1292.91,711.33,1314.59,749.80
0.00,1676.83,948.15,1700.01,977.03
0.00,1676.59,1685.43,1719.20,1713.27
0.00,1677.14,2129.63,1698.56,2156.20
0.00,525.59,2390.29,535.36,2418.19
1.00,623.83,388.59,660.65,512.63
1.00,937.12,359.46,1047.14,516.57
1.00,558.63,662.12,661.96,752.69
1.00,826.47,652.36,1027.37,741.73
1.00,610.98,832.80,661.32,964.31
1.00,841.63,813.65,1035.46,991.79
1.00,606.53,1069.92,878.64,1190.88
1.00,1395.24,1376.36,1428.05,1406.60
1.00,1202.37,1419.60,1247.68,1445.83
1.00,1309.92,1418.98,1352.97,1446.21
1.00,1399.94,1419.80,1426.35,1445.33
1.00,1200.60,1460.59,1249.75,1486.64
1.00,1395.99,1459.38,1486.73,1488.40
1.00,515.26,1506.69,553.67,1523.19
1.00,1377.45,1500.82,1509.07,1539.36
1.00,1197.66,1547.79,1280.10,1572.92
1.00,1311.93,1546.33,1353.08,1574.37
1.00,1392.71,1544.42,1502.03,1580.51
1.00,1199.19,1589.90,1226.19,1614.04
1.00,1391.75,1586.53,1629.37,1622.58
1.00,1199.65,1633.44,1226.37,1657.38
1.00,1311.86,1634.73,1352.48,1660.43
1.00,1388.12,1629.70,1659.68,1666.64
1.00,1204.01,1672.76,1228.40,1698.06
1.00,1393.63,1669.80,1576.19,1706.83
1.00,1292.02,1714.16,1712.93,1783.65
1.00,1173.42,1828.05,1193.70,1853.04
1.00,649.74,1888.87,675.31,1918.34
1.00,258.17,2344.75,277.47,2374.78
2.00,1646.63,383.30,1664.73,404.93
2.00,266.96,415.56,277.23,448.99
2.00,1715.65,415.10,1738.63,442.70
2.00,1275.16,523.85,1631.82,624.66
2.00,1270.40,736.03,1638.40,851.45
2.00,266.86,903.70,276.96,934.72
2.00,1197.20,896.48,1267.76,932.47
2.00,1663.74,905.66,1688.72,924.63
2.00,1215.01,937.69,1323.36,974.51
2.00,1087.09,979.79,1281.09,1017.14
2.00,1299.78,980.37,1393.68,1017.80
2.00,1466.85,1033.35,1491.49,1050.25
2.00,1404.73,1066.85,1428.30,1096.22
2.00,1667.04,1065.17,1777.05,1104.54
2.00,1400.52,1635.36,1428.91,1663.47
2.00,1760.70,2164.07,1804.57,2189.14
2.00,1325.20,2196.86,1402.25,2232.65
2.00,1087.41,2239.66,1366.77,2272.57
2.00,1101.50,2345.71,1815.38,2494.51
2.00,1171.83,2507.61,1400.18,2545.71
3.00,271.90,329.81,561.58,363.79
3.00,339.55,380.18,887.27,415.26
3.00,336.03,429.89,538.79,463.73
3.00,261.25,532.57,567.48,564.26
3.00,262.04,613.71,811.62,695.44
3.00,742.56,832.46,769.16,857.57
3.00,395.78,917.65,424.83,941.68
3.00,697.08,1011.03,719.38,1034.13
3.00,255.03,1088.28,265.44,1117.57
3.00,709.31,1263.35,729.19,1287.44
3.00,824.58,1252.47,976.38,1289.98
3.00,480.58,1370.93,491.69,1396.28
3.00,790.50,1364.83,820.75,1405.33
3.00,515.70,1529.75,544.87,1560.57
3.00,533.44,1599.05,760.81,1709.26
3.00,423.19,1754.32,451.83,1778.54
3.00,505.94,1867.38,770.42,1963.64
3.00,455.53,2023.40,475.85,2046.64
3.00,577.99,2013.27,595.68,2044.95
4.00,1081.87,362.33,1113.40,388.86
4.00,521.25,462.32,552.53,489.75
4.00,1228.04,574.60,1282.17,605.10
4.00,906.70,629.88,936.12,658.45
4.00,317.02,741.48,953.72,819.29
4.00,503.03,866.59,651.88,902.32
4.00,388.10,999.40,407.92,1026.45
4.00,552.81,1862.21,628.16,1888.23
4.00,1082.30,2359.55,1811.84,2439.81
4.00,346.77,2500.48,557.40,2539.30
5.00,623.77,481.37,659.42,572.06
5.00,517.76,715.13,1797.81,753.04
5.00,519.04,1230.04,655.46,1424.39
6.00,1296.46,894.63,1308.82,920.55
6.00,1296.82,959.14,1306.97,988.53
6.00,624.19,1118.17,652.63,1134.19
6.00,1399.07,1088.05,1425.12,1123.52
6.00,639.73,1202.18,656.03,1229.57
6.00,1412.25,1284.39,1423.43,1316.21
6.00,1663.51,1329.55,1808.94,1363.36
6.00,1399.14,1371.90,1424.82,1402.63
6.00,1375.47,1444.93,1415.42,1471.55
6.00,1403.87,1613.76,1425.19,1641.96
6.00,558.65,1858.65,584.55,1882.80
